Proyecto/final_final/Gestos/simulation/qsim/Gestos.msim.vcd
$comment
	File created using the following command:
		vcd file Gestos.msim.vcd -direction
$end
$date
	Thu Jan 25 10:07:45 2018
$end
$version
	ModelSim Version 10.5b
$end
$timescale
	1ps
$end

$scope module gestos_vhd_vec_tst $end
$var wire 1 ! clock $end
$var wire 1 " est [3] $end
$var wire 1 # est [2] $end
$var wire 1 $ est [1] $end
$var wire 1 % est [0] $end
$var wire 1 & led $end
$var wire 1 ' Out7Seg [6] $end
$var wire 1 ( Out7Seg [5] $end
$var wire 1 ) Out7Seg [4] $end
$var wire 1 * Out7Seg [3] $end
$var wire 1 + Out7Seg [2] $end
$var wire 1 , Out7Seg [1] $end
$var wire 1 - Out7Seg [0] $end
$var wire 1 . Resetn $end
$var wire 1 / RestaX [7] $end
$var wire 1 0 RestaX [6] $end
$var wire 1 1 RestaX [5] $end
$var wire 1 2 RestaX [4] $end
$var wire 1 3 RestaX [3] $end
$var wire 1 4 RestaX [2] $end
$var wire 1 5 RestaX [1] $end
$var wire 1 6 RestaX [0] $end
$var wire 1 7 restaY [7] $end
$var wire 1 8 restaY [6] $end
$var wire 1 9 restaY [5] $end
$var wire 1 : restaY [4] $end
$var wire 1 ; restaY [3] $end
$var wire 1 < restaY [2] $end
$var wire 1 = restaY [1] $end
$var wire 1 > restaY [0] $end
$var wire 1 ? Sensibilidad [7] $end
$var wire 1 @ Sensibilidad [6] $end
$var wire 1 A Sensibilidad [5] $end
$var wire 1 B Sensibilidad [4] $end
$var wire 1 C Sensibilidad [3] $end
$var wire 1 D Sensibilidad [2] $end
$var wire 1 E Sensibilidad [1] $end
$var wire 1 F Sensibilidad [0] $end
$var wire 1 G start $end
$var wire 1 H stop $end
$var wire 1 I x [7] $end
$var wire 1 J x [6] $end
$var wire 1 K x [5] $end
$var wire 1 L x [4] $end
$var wire 1 M x [3] $end
$var wire 1 N x [2] $end
$var wire 1 O x [1] $end
$var wire 1 P x [0] $end
$var wire 1 Q y [7] $end
$var wire 1 R y [6] $end
$var wire 1 S y [5] $end
$var wire 1 T y [4] $end
$var wire 1 U y [3] $end
$var wire 1 V y [2] $end
$var wire 1 W y [1] $end
$var wire 1 X y [0] $end

$scope module i1 $end
$var wire 1 Y gnd $end
$var wire 1 Z vcc $end
$var wire 1 [ unknown $end
$var wire 1 \ devoe $end
$var wire 1 ] devclrn $end
$var wire 1 ^ devpor $end
$var wire 1 _ ww_devoe $end
$var wire 1 ` ww_devclrn $end
$var wire 1 a ww_devpor $end
$var wire 1 b ww_led $end
$var wire 1 c ww_Resetn $end
$var wire 1 d ww_clock $end
$var wire 1 e ww_start $end
$var wire 1 f ww_stop $end
$var wire 1 g ww_y [7] $end
$var wire 1 h ww_y [6] $end
$var wire 1 i ww_y [5] $end
$var wire 1 j ww_y [4] $end
$var wire 1 k ww_y [3] $end
$var wire 1 l ww_y [2] $end
$var wire 1 m ww_y [1] $end
$var wire 1 n ww_y [0] $end
$var wire 1 o ww_x [7] $end
$var wire 1 p ww_x [6] $end
$var wire 1 q ww_x [5] $end
$var wire 1 r ww_x [4] $end
$var wire 1 s ww_x [3] $end
$var wire 1 t ww_x [2] $end
$var wire 1 u ww_x [1] $end
$var wire 1 v ww_x [0] $end
$var wire 1 w ww_Sensibilidad [7] $end
$var wire 1 x ww_Sensibilidad [6] $end
$var wire 1 y ww_Sensibilidad [5] $end
$var wire 1 z ww_Sensibilidad [4] $end
$var wire 1 { ww_Sensibilidad [3] $end
$var wire 1 | ww_Sensibilidad [2] $end
$var wire 1 } ww_Sensibilidad [1] $end
$var wire 1 ~ ww_Sensibilidad [0] $end
$var wire 1 !! ww_est [3] $end
$var wire 1 "! ww_est [2] $end
$var wire 1 #! ww_est [1] $end
$var wire 1 $! ww_est [0] $end
$var wire 1 %! ww_Out7Seg [6] $end
$var wire 1 &! ww_Out7Seg [5] $end
$var wire 1 '! ww_Out7Seg [4] $end
$var wire 1 (! ww_Out7Seg [3] $end
$var wire 1 )! ww_Out7Seg [2] $end
$var wire 1 *! ww_Out7Seg [1] $end
$var wire 1 +! ww_Out7Seg [0] $end
$var wire 1 ,! ww_RestaX [7] $end
$var wire 1 -! ww_RestaX [6] $end
$var wire 1 .! ww_RestaX [5] $end
$var wire 1 /! ww_RestaX [4] $end
$var wire 1 0! ww_RestaX [3] $end
$var wire 1 1! ww_RestaX [2] $end
$var wire 1 2! ww_RestaX [1] $end
$var wire 1 3! ww_RestaX [0] $end
$var wire 1 4! ww_restaY [7] $end
$var wire 1 5! ww_restaY [6] $end
$var wire 1 6! ww_restaY [5] $end
$var wire 1 7! ww_restaY [4] $end
$var wire 1 8! ww_restaY [3] $end
$var wire 1 9! ww_restaY [2] $end
$var wire 1 :! ww_restaY [1] $end
$var wire 1 ;! ww_restaY [0] $end
$var wire 1 <! \inst19|Add1~43\ $end
$var wire 1 =! \inst26|Add1~43\ $end
$var wire 1 >! \inst24|LessThan1~5\ $end
$var wire 1 ?! \inst30|LessThan1~5\ $end
$var wire 1 @! \inst24|LessThan1~10\ $end
$var wire 1 A! \inst30|LessThan1~10\ $end
$var wire 1 B! \inst24|LessThan1~15\ $end
$var wire 1 C! \inst30|LessThan1~15\ $end
$var wire 1 D! \inst24|LessThan1~20\ $end
$var wire 1 E! \inst30|LessThan1~20\ $end
$var wire 1 F! \inst24|LessThan1~25\ $end
$var wire 1 G! \inst30|LessThan1~25\ $end
$var wire 1 H! \inst24|LessThan1~30\ $end
$var wire 1 I! \inst30|LessThan1~30\ $end
$var wire 1 J! \inst24|LessThan1~35\ $end
$var wire 1 K! \inst30|LessThan1~35\ $end
$var wire 1 L! \clock~combout\ $end
$var wire 1 M! \stop~combout\ $end
$var wire 1 N! \inst43|Selector0~3_combout\ $end
$var wire 1 O! \start~combout\ $end
$var wire 1 P! \Resetn~combout\ $end
$var wire 1 Q! \inst43|Selector0~0\ $end
$var wire 1 R! \inst43|Selector0~1_combout\ $end
$var wire 1 S! \inst19|Add1~45_cout0\ $end
$var wire 1 T! \inst19|Add1~45COUT1_49\ $end
$var wire 1 U! \inst19|Add1~38\ $end
$var wire 1 V! \inst19|Add1~38COUT1_50\ $end
$var wire 1 W! \inst19|Add1~32\ $end
$var wire 1 X! \inst19|Add1~32COUT1_51\ $end
$var wire 1 Y! \inst19|Add1~26\ $end
$var wire 1 Z! \inst19|Add1~26COUT1_52\ $end
$var wire 1 [! \inst19|Add1~20\ $end
$var wire 1 \! \inst19|Add1~14\ $end
$var wire 1 ]! \inst19|Add1~14COUT1_53\ $end
$var wire 1 ^! \inst19|Add1~8\ $end
$var wire 1 _! \inst19|Add1~8COUT1_54\ $end
$var wire 1 `! \inst19|Add1~0_combout\ $end
$var wire 1 a! \inst4|Add0~0_combout\ $end
$var wire 1 b! \inst4|Add1~37\ $end
$var wire 1 c! \inst4|Add1~37COUT1_41\ $end
$var wire 1 d! \inst4|Add1~32\ $end
$var wire 1 e! \inst4|Add1~32COUT1_42\ $end
$var wire 1 f! \inst4|Add1~27\ $end
$var wire 1 g! \inst4|Add1~27COUT1_43\ $end
$var wire 1 h! \inst4|Add1~22\ $end
$var wire 1 i! \inst4|Add1~22COUT1_44\ $end
$var wire 1 j! \inst4|Add1~17\ $end
$var wire 1 k! \inst4|Add1~12\ $end
$var wire 1 l! \inst4|Add1~12COUT1_45\ $end
$var wire 1 m! \inst4|Add1~7\ $end
$var wire 1 n! \inst4|Add1~7COUT1_46\ $end
$var wire 1 o! \inst4|Add1~0_combout\ $end
$var wire 1 p! \inst19|Add1~5_combout\ $end
$var wire 1 q! \inst19|Add1~18_combout\ $end
$var wire 1 r! \inst4|Add1~15_combout\ $end
$var wire 1 s! \inst19|Add1~23_combout\ $end
$var wire 1 t! \inst19|Add1~24_combout\ $end
$var wire 1 u! \inst4|Add1~20_combout\ $end
$var wire 1 v! \inst19|Add1~29_combout\ $end
$var wire 1 w! \inst19|Add1~30_combout\ $end
$var wire 1 x! \inst4|Add1~25_combout\ $end
$var wire 1 y! \inst19|Add1~35_combout\ $end
$var wire 1 z! \inst4|Add1~30_combout\ $end
$var wire 1 {! \inst19|Add1~36_combout\ $end
$var wire 1 |! \inst19|Add1~41_combout\ $end
$var wire 1 }! \inst4|Add1~35_combout\ $end
$var wire 1 ~! \inst19|Add1~42_combout\ $end
$var wire 1 !" \inst24|LessThan1~37_cout0\ $end
$var wire 1 "" \inst24|LessThan1~37COUT1_41\ $end
$var wire 1 #" \inst24|LessThan1~32_cout0\ $end
$var wire 1 $" \inst24|LessThan1~32COUT1_42\ $end
$var wire 1 %" \inst24|LessThan1~27_cout0\ $end
$var wire 1 &" \inst24|LessThan1~27COUT1_43\ $end
$var wire 1 '" \inst24|LessThan1~22_cout0\ $end
$var wire 1 (" \inst24|LessThan1~22COUT1_44\ $end
$var wire 1 )" \inst24|LessThan1~17_cout\ $end
$var wire 1 *" \inst19|Add1~6_combout\ $end
$var wire 1 +" \inst4|Add1~5_combout\ $end
$var wire 1 ," \inst19|Add1~11_combout\ $end
$var wire 1 -" \inst4|Add1~10_combout\ $end
$var wire 1 ." \inst19|Add1~12_combout\ $end
$var wire 1 /" \inst19|Add1~17_combout\ $end
$var wire 1 0" \inst24|LessThan1~12_cout0\ $end
$var wire 1 1" \inst24|LessThan1~12COUT1_45\ $end
$var wire 1 2" \inst24|LessThan1~7_cout0\ $end
$var wire 1 3" \inst24|LessThan1~7COUT1_46\ $end
$var wire 1 4" \inst24|LessThan1~0_combout\ $end
$var wire 1 5" \inst|LessThan1~0_combout\ $end
$var wire 1 6" \inst|LessThan1~1_combout\ $end
$var wire 1 7" \inst3|LessThan1~0_combout\ $end
$var wire 1 8" \inst3|LessThan1~1_combout\ $end
$var wire 1 9" \inst7|Add0~0_combout\ $end
$var wire 1 :" \inst7|Add1~37\ $end
$var wire 1 ;" \inst7|Add1~37COUT1_41\ $end
$var wire 1 <" \inst7|Add1~32\ $end
$var wire 1 =" \inst7|Add1~32COUT1_42\ $end
$var wire 1 >" \inst7|Add1~27\ $end
$var wire 1 ?" \inst7|Add1~27COUT1_43\ $end
$var wire 1 @" \inst7|Add1~22\ $end
$var wire 1 A" \inst7|Add1~22COUT1_44\ $end
$var wire 1 B" \inst7|Add1~17\ $end
$var wire 1 C" \inst7|Add1~12\ $end
$var wire 1 D" \inst7|Add1~12COUT1_45\ $end
$var wire 1 E" \inst7|Add1~7\ $end
$var wire 1 F" \inst7|Add1~7COUT1_46\ $end
$var wire 1 G" \inst7|Add1~0_combout\ $end
$var wire 1 H" \inst26|Add1~45_cout0\ $end
$var wire 1 I" \inst26|Add1~45COUT1_49\ $end
$var wire 1 J" \inst26|Add1~38\ $end
$var wire 1 K" \inst26|Add1~38COUT1_50\ $end
$var wire 1 L" \inst26|Add1~32\ $end
$var wire 1 M" \inst26|Add1~32COUT1_51\ $end
$var wire 1 N" \inst26|Add1~26\ $end
$var wire 1 O" \inst26|Add1~26COUT1_52\ $end
$var wire 1 P" \inst26|Add1~20\ $end
$var wire 1 Q" \inst26|Add1~14\ $end
$var wire 1 R" \inst26|Add1~14COUT1_53\ $end
$var wire 1 S" \inst26|Add1~8\ $end
$var wire 1 T" \inst26|Add1~8COUT1_54\ $end
$var wire 1 U" \inst26|Add1~0_combout\ $end
$var wire 1 V" \inst26|Add1~5_combout\ $end
$var wire 1 W" \inst7|Add1~15_combout\ $end
$var wire 1 X" \inst26|Add1~18_combout\ $end
$var wire 1 Y" \inst26|Add1~23_combout\ $end
$var wire 1 Z" \inst26|Add1~24_combout\ $end
$var wire 1 [" \inst7|Add1~20_combout\ $end
$var wire 1 \" \inst26|Add1~29_combout\ $end
$var wire 1 ]" \inst7|Add1~25_combout\ $end
$var wire 1 ^" \inst26|Add1~30_combout\ $end
$var wire 1 _" \inst26|Add1~35_combout\ $end
$var wire 1 `" \inst26|Add1~36_combout\ $end
$var wire 1 a" \inst7|Add1~30_combout\ $end
$var wire 1 b" \inst26|Add1~41_combout\ $end
$var wire 1 c" \inst7|Add1~35_combout\ $end
$var wire 1 d" \inst26|Add1~42_combout\ $end
$var wire 1 e" \inst30|LessThan1~37_cout0\ $end
$var wire 1 f" \inst30|LessThan1~37COUT1_41\ $end
$var wire 1 g" \inst30|LessThan1~32_cout0\ $end
$var wire 1 h" \inst30|LessThan1~32COUT1_42\ $end
$var wire 1 i" \inst30|LessThan1~27_cout0\ $end
$var wire 1 j" \inst30|LessThan1~27COUT1_43\ $end
$var wire 1 k" \inst30|LessThan1~22_cout0\ $end
$var wire 1 l" \inst30|LessThan1~22COUT1_44\ $end
$var wire 1 m" \inst30|LessThan1~17_cout\ $end
$var wire 1 n" \inst7|Add1~5_combout\ $end
$var wire 1 o" \inst26|Add1~6_combout\ $end
$var wire 1 p" \inst26|Add1~11_combout\ $end
$var wire 1 q" \inst7|Add1~10_combout\ $end
$var wire 1 r" \inst26|Add1~12_combout\ $end
$var wire 1 s" \inst26|Add1~17_combout\ $end
$var wire 1 t" \inst30|LessThan1~12_cout0\ $end
$var wire 1 u" \inst30|LessThan1~12COUT1_45\ $end
$var wire 1 v" \inst30|LessThan1~7_cout0\ $end
$var wire 1 w" \inst30|LessThan1~7COUT1_46\ $end
$var wire 1 x" \inst30|LessThan1~0_combout\ $end
$var wire 1 y" \inst43|Selector6~0_combout\ $end
$var wire 1 z" \inst43|Selector6~1_combout\ $end
$var wire 1 {" \inst43|y.Tg~regout\ $end
$var wire 1 |" \inst43|y.Te~regout\ $end
$var wire 1 }" \inst43|y.Th~regout\ $end
$var wire 1 ~" \inst43|y.Tf~regout\ $end
$var wire 1 !# \inst43|WideOr7~0_combout\ $end
$var wire 1 "# \inst43|Selector2~0_combout\ $end
$var wire 1 ## \inst43|Selector0~2_combout\ $end
$var wire 1 $# \inst43|y.Ta~regout\ $end
$var wire 1 %# \inst43|Selector1~0_combout\ $end
$var wire 1 &# \inst43|y.Tb~regout\ $end
$var wire 1 '# \inst43|y.Tj~regout\ $end
$var wire 1 (# \inst43|Selector2~1_combout\ $end
$var wire 1 )# \inst43|y.Tc~regout\ $end
$var wire 1 *# \inst43|y.Td~regout\ $end
$var wire 1 +# \inst43|y.Ti~regout\ $end
$var wire 1 ,# \inst43|WideOr5~0_combout\ $end
$var wire 1 -# \inst43|WideOr1~0_combout\ $end
$var wire 1 .# \inst43|WideOr2~combout\ $end
$var wire 1 /# \inst43|WideOr5~1_combout\ $end
$var wire 1 0# \inst43|WideOr3~combout\ $end
$var wire 1 1# \inst43|WideOr4~combout\ $end
$var wire 1 2# \inst38|sal[6]~0_combout\ $end
$var wire 1 3# \inst38|sal[5]~1_combout\ $end
$var wire 1 4# \inst38|sal[4]~2_combout\ $end
$var wire 1 5# \inst38|sal[3]~3_combout\ $end
$var wire 1 6# \inst38|sal[2]~4_combout\ $end
$var wire 1 7# \inst43|WideOr6~combout\ $end
$var wire 1 8# \inst37|Q\ [3] $end
$var wire 1 9# \inst37|Q\ [2] $end
$var wire 1 :# \inst37|Q\ [1] $end
$var wire 1 ;# \inst37|Q\ [0] $end
$var wire 1 <# \x~combout\ [7] $end
$var wire 1 =# \x~combout\ [6] $end
$var wire 1 ># \x~combout\ [5] $end
$var wire 1 ?# \x~combout\ [4] $end
$var wire 1 @# \x~combout\ [3] $end
$var wire 1 A# \x~combout\ [2] $end
$var wire 1 B# \x~combout\ [1] $end
$var wire 1 C# \x~combout\ [0] $end
$var wire 1 D# \y~combout\ [7] $end
$var wire 1 E# \y~combout\ [6] $end
$var wire 1 F# \y~combout\ [5] $end
$var wire 1 G# \y~combout\ [4] $end
$var wire 1 H# \y~combout\ [3] $end
$var wire 1 I# \y~combout\ [2] $end
$var wire 1 J# \y~combout\ [1] $end
$var wire 1 K# \y~combout\ [0] $end
$var wire 1 L# \Sensibilidad~combout\ [7] $end
$var wire 1 M# \Sensibilidad~combout\ [6] $end
$var wire 1 N# \Sensibilidad~combout\ [5] $end
$var wire 1 O# \Sensibilidad~combout\ [4] $end
$var wire 1 P# \Sensibilidad~combout\ [3] $end
$var wire 1 Q# \Sensibilidad~combout\ [2] $end
$var wire 1 R# \Sensibilidad~combout\ [1] $end
$var wire 1 S# \Sensibilidad~combout\ [0] $end
$var wire 1 T# \ALT_INV_Resetn~combout\ $end
$var wire 1 U# \inst38|ALT_INV_sal[4]~2_combout\ $end
$var wire 1 V# \inst43|ALT_INV_WideOr3~combout\ $end
$upscope $end
$upscope $end
$enddefinitions $end
#0
$dumpvars
0!
0&
1.
0G
0H
0Y
1Z
x[
1\
1]
1^
1_
1`
1a
0b
1c
0d
0e
0f
1<!
1=!
1>!
1?!
1@!
1A!
1B!
1C!
1D!
1E!
1F!
1G!
1H!
1I!
1J!
1K!
0L!
0M!
0N!
0O!
1P!
0Q!
0R!
1S!
1T!
0U!
0V!
1W!
1X!
0Y!
0Z!
1[!
1\!
0]!
0^!
1_!
0`!
0a!
0b!
0c!
1d!
1e!
0f!
0g!
1h!
1i!
0j!
1k!
1l!
0m!
0n!
0o!
0p!
0q!
0r!
0s!
0t!
0u!
0v!
0w!
0x!
0y!
0z!
0{!
0|!
1}!
1~!
0!"
0""
1#"
1$"
0%"
0&"
1'"
1("
0)"
0*"
0+"
0,"
0-"
0."
0/"
10"
01"
02"
13"
04"
05"
06"
07"
08"
09"
0:"
0;"
1<"
1="
0>"
0?"
1@"
1A"
0B"
1C"
1D"
0E"
0F"
0G"
1H"
1I"
0J"
0K"
1L"
1M"
0N"
0O"
1P"
1Q"
0R"
0S"
1T"
0U"
0V"
0W"
0X"
0Y"
0Z"
0["
0\"
0]"
0^"
0_"
0`"
0a"
0b"
1c"
1d"
0e"
0f"
1g"
1h"
0i"
0j"
1k"
1l"
0m"
0n"
0o"
0p"
0q"
0r"
0s"
1t"
0u"
0v"
1w"
0x"
0y"
0z"
0{"
0|"
0}"
0~"
0!#
1"#
0##
0$#
0%#
0&#
0'#
0(#
0)#
0*#
0+#
0,#
0-#
0.#
0/#
10#
11#
12#
13#
04#
15#
16#
17#
0T#
1U#
0V#
0?
0@
0A
0B
0C
0D
1E
1F
1I
0J
0K
0L
0M
0N
0O
0P
1Q
0R
0S
0T
0U
0V
0W
0X
1g
0h
0i
0j
0k
0l
0m
0n
1o
0p
0q
0r
0s
0t
0u
0v
0w
0x
0y
0z
0{
0|
1}
1~
0!!
0"!
0#!
1$!
1%!
1&!
1'!
1(!
1)!
1*!
1+!
0,!
0-!
0.!
0/!
00!
01!
02!
13!
04!
05!
06!
07!
08!
09!
0:!
1;!
x8#
x9#
0:#
0;#
1<#
0=#
0>#
0?#
0@#
0A#
0B#
0C#
1D#
0E#
0F#
0G#
0H#
0I#
0J#
0K#
0L#
0M#
0N#
0O#
0P#
0Q#
1R#
1S#
0"
0#
0$
1%
1'
1(
1)
1*
1+
1,
1-
0/
00
01
02
03
04
05
16
07
08
09
0:
0;
0<
0=
1>
$end
#5000
1!
1d
1L!
#10000
0!
0d
0L!
#15000
1!
1d
1L!
#20000
0!
0d
0L!
#25000
1!
1d
1L!
#30000
0!
0d
0L!
#35000
1!
1d
1L!
#40000
0!
0d
0L!
#45000
1!
1d
1L!
#50000
0!
1G
0d
1e
1O!
0L!
1R!
1%#
1##
#55000
1!
1d
1L!
1&#
1$#
0R!
0%#
1/#
00#
01#
0##
1V#
0$!
1#!
0%
1$
#60000
0!
0d
0L!
#65000
1!
1d
1L!
#70000
0!
0d
0L!
#75000
1!
1d
1L!
#80000
0!
0d
0L!
#85000
1!
1d
1L!
#90000
0!
0G
0d
0e
0O!
0L!
0"#
1##
#95000
1!
1d
1L!
1)#
0&#
1"#
1,#
07#
1y"
11#
1$!
1z"
0*!
03#
14#
05#
06#
1b
0U#
1%
0,
1&
0)!
0(!
0+!
0&!
1(#
0'!
0-
0+
0*
0(
0)
#100000
0!
0d
0L!
#105000
1!
1d
1L!
#110000
0!
0d
0L!
#115000
1!
1d
1L!
#120000
0!
0I
1J
1K
1L
1M
1N
1O
1P
0d
1v
1u
1t
1s
1r
1q
1p
0o
0<#
1=#
1>#
1?#
1@#
1A#
1B#
1C#
0L!
0S!
0T!
0}!
1b!
1c!
1{!
1U!
1V!
1z!
1w!
0W!
0X!
1x!
16"
1t!
1Y!
1Z!
1u!
1q!
0[!
1r!
1."
1]!
1-"
0l!
1*"
0_!
1+"
15"
1`!
1a!
1o!
1p!
1,"
1n!
1/"
0."
0*"
0`!
1s!
0q!
1v!
0t!
1y!
0w!
1|!
0z!
0d!
0e!
0{!
0x!
1f!
1g!
0|!
12!
0y!
1%"
1&"
11!
0v!
0'"
0("
10!
0s!
1)"
1/!
0,"
0/"
00"
1.!
12"
1-!
14"
1,!
0p!
15
14
13
12
11
10
1/
0,!
0(#
0.!
0-!
10"
0/!
00!
0%"
0&"
01!
02!
0u!
0h!
0i!
05
04
03
02
01
00
0/
0r!
1j!
1'"
1("
02"
0)"
0-"
0+"
0o!
04"
1(#
#125000
1!
1d
1L!
#130000
0!
0d
0L!
#135000
1!
1d
1L!
#140000
0!
0d
0L!
#145000
1!
1d
1L!
#150000
0!
0P
0d
0v
0C#
0L!
1S!
1T!
1}!
0b!
0c!
0~!
03!
1z!
1d!
1e!
1{!
06
1x!
0f!
0g!
1|!
12!
1u!
1h!
1i!
15
1r!
0j!
1-"
1+"
1o!
#155000
1!
1d
1L!
#160000
0!
0d
0L!
#165000
1!
1d
1L!
#170000
0!
0d
0L!
#175000
1!
1d
1L!
#180000
0!
1P
0O
0d
1v
0u
0B#
1C#
0L!
0S!
0T!
0}!
1b!
1c!
1~!
0{!
0U!
0V!
0z!
1w!
0|!
13!
1z!
1{!
1U!
1V!
16
0w!
1|!
02!
1y!
05
1%"
1&"
11!
12!
0y!
15
14
0%"
0&"
01!
0'"
0("
04
1)"
1'"
1("
0)"
14"
0(#
04"
1(#
#185000
1!
1d
1L!
#190000
0!
0d
0L!
#195000
1!
1d
1L!
#200000
0!
0d
0L!
#205000
1!
1d
1L!
#210000
0!
0P
0d
0v
0C#
0L!
1S!
1T!
1}!
0b!
0c!
0~!
03!
0z!
0{!
0U!
0V!
06
1w!
0|!
02!
1y!
05
1%"
1&"
11!
14
0'"
0("
1)"
14"
0(#
#215000
1!
1d
1L!
0)#
1}"
1!#
1-#
10#
0y"
0##
01#
0V#
0$!
0z"
1!!
0"#
0#!
0%
1"
1##
0$
#220000
0!
0d
0L!
#225000
1!
1d
1L!
1;#
1:#
1)#
0}"
0!#
0-#
00#
1y"
11#
02#
13#
04#
1U#
1V#
1&!
0%!
1$!
1z"
0!!
1"#
1#!
1'!
1(
0'
1%
0"
1$
1)
#230000
0!
0d
0L!
#235000
1!
1d
1L!
0)#
1}"
1!#
1-#
10#
0y"
0##
01#
0V#
0$!
0z"
1!!
0"#
0#!
0%
1"
1##
0$
#240000
0!
1P
1O
0N
0d
1v
1u
0t
0A#
1B#
1C#
0L!
0S!
0T!
0}!
1b!
1c!
1~!
1{!
1U!
1V!
1z!
0w!
1W!
1X!
0x!
1t!
0y!
1w!
0W!
0X!
1|!
13!
0z!
0d!
0e!
0{!
16
1x!
0|!
12!
0t!
1y!
0%"
0&"
01!
1v!
15
04
10!
1%"
1&"
11!
0v!
02!
05
14
13
00!
03
#245000
1!
1d
1L!
1)#
0}"
0!#
0-#
00#
1y"
11#
1V#
1$!
1z"
0!!
1"#
1#!
1%
0"
1$
#250000
0!
0d
0L!
#255000
1!
1d
1L!
0)#
1}"
1!#
1-#
10#
0y"
0##
01#
0V#
0$!
0z"
1!!
0"#
0#!
0%
1"
1##
0$
#260000
0!
0d
0L!
#265000
1!
1d
1L!
1)#
0}"
0!#
0-#
00#
1y"
11#
1V#
1$!
1z"
0!!
1"#
1#!
1%
0"
1$
#270000
0!
0P
0O
1I
0J
0K
0L
0M
0d
0v
0u
0s
0r
0q
0p
1o
1<#
0=#
0>#
0?#
0@#
0B#
0C#
0L!
1S!
1T!
1}!
0b!
0c!
1{!
1z!
1d!
1e!
1t!
0u!
1q!
0r!
1."
0]!
0-"
1l!
1*"
0+"
0n!
05"
1`!
0a!
1p!
1s!
1v!
0~!
1,"
1/"
00"
1.!
12"
1-!
03!
10!
1/!
1,!
06"
0o!
0,"
1_!
0/"
0s!
0v!
0x!
1|!
0z!
1~!
0{!
0U!
0V!
06
13
12
11
10
1/
0w!
1W!
1X!
0|!
12!
0y!
10"
0p!
1(#
0/!
00!
13!
0-!
0.!
16
15
03
02
01
00
0,!
02"
0%"
0&"
01!
02!
0t!
0Y!
0Z!
05
04
0/
0q!
1[!
1'"
1("
0)"
0."
0*"
0`!
04"
#275000
1!
1d
1L!
#280000
0!
0d
0L!
#285000
1!
1d
1L!
#290000
0!
0d
0L!
#295000
1!
1d
1L!
#300000
0!
0d
0L!
#305000
1!
1d
1L!
#310000
0!
0d
0L!
#315000
1!
1d
1L!
#320000
0!
0d
0L!
#325000
1!
1d
1L!
#330000
0!
0Q
1R
1S
1T
1U
1V
1W
1X
0d
1n
1m
1l
1k
1j
1i
1h
0g
0D#
1E#
1F#
1G#
1H#
1I#
1J#
1K#
0L!
0c"
1:"
1;"
0H"
0I"
1a"
1`"
1J"
1K"
18"
1]"
1^"
0L"
0M"
1["
1Z"
1N"
1O"
1W"
1X"
0P"
1q"
0D"
1r"
1R"
17"
1n"
1o"
0T"
19"
1U"
1V"
1G"
1p"
1F"
1s"
0r"
0o"
0U"
1Y"
0X"
1\"
0Z"
1_"
0^"
1b"
0`"
0a"
0<"
0="
0]"
1>"
1?"
0b"
1:!
0_"
1i"
1j"
19!
0\"
0k"
0l"
18!
0Y"
1m"
17!
0p"
0s"
0t"
16!
1v"
15!
0V"
1x"
14!
1=
1<
1;
1:
19
18
17
0z"
04!
06!
05!
1t"
07!
08!
0i"
0j"
09!
0:!
0["
0@"
0A"
0=
0<
0;
0:
09
08
07
0W"
1B"
1k"
1l"
0v"
0(#
0m"
0q"
0n"
0G"
0x"
1z"
1(#
#335000
1!
1d
1L!
#340000
0!
0d
0L!
#345000
1!
1d
1L!
#350000
0!
0d
0L!
#355000
1!
1d
1L!
#360000
0!
0X
0d
0n
0K#
0L!
1c"
0:"
0;"
1H"
1I"
0d"
0;!
1`"
1a"
1<"
1="
0>
1]"
0>"
0?"
1b"
1:!
1["
1@"
1A"
1=
1W"
0B"
1q"
1n"
1G"
#365000
1!
1d
1L!
#370000
0!
0d
0L!
#375000
1!
1d
1L!
#380000
0!
0d
0L!
#385000
1!
1d
1L!
#390000
0!
1X
0W
0d
1n
0m
0J#
1K#
0L!
0c"
1:"
1;"
0H"
0I"
1d"
0a"
0`"
0J"
0K"
1^"
0b"
1;!
1`"
1J"
1K"
1a"
1>
0^"
1b"
0:!
1_"
0=
1i"
1j"
19!
1:!
0_"
1=
1<
0i"
0j"
09!
0k"
0l"
0<
1m"
1k"
1l"
0m"
1x"
0z"
0x"
1z"
0(#
1(#
#395000
1!
1d
1L!
#400000
0!
0d
0L!
#405000
1!
1d
1L!
#410000
0!
0d
0L!
#415000
1!
1d
1L!
#420000
0!
0X
0d
0n
0K#
0L!
1c"
0:"
0;"
1H"
1I"
0d"
0;!
0`"
0J"
0K"
0a"
0>
1^"
0b"
0:!
1_"
0=
1i"
1j"
19!
1<
0k"
0l"
1m"
1x"
0z"
0(#
#425000
1!
1d
1L!
0)#
1~"
1!#
1.#
0y"
0##
01#
0$!
1"!
0"#
0%
1#
1##
#430000
0!
0d
0L!
#435000
1!
1d
1L!
0:#
1)#
0~"
0!#
0.#
1y"
11#
12#
15#
1(!
1+!
1%!
1$!
0"!
1"#
1-
1*
1'
1%
0#
#440000
0!
0d
0L!
#445000
1!
1d
1L!
0)#
1~"
1!#
1.#
0y"
0##
01#
0$!
1"!
0"#
0%
1#
1##
#450000
0!
1X
1W
0V
0d
1n
1m
0l
0I#
1J#
1K#
0L!
0c"
1:"
1;"
0H"
0I"
1d"
1a"
1`"
1J"
1K"
0]"
0^"
1L"
1M"
1Z"
0_"
1^"
0L"
0M"
1b"
1;!
0`"
0a"
0<"
0="
1>
1]"
0b"
1:!
0Z"
1_"
0i"
0j"
09!
1\"
1=
0<
18!
1i"
1j"
19!
0\"
0:!
0=
1<
1;
08!
0;
#455000
1!
1d
1L!
1)#
0~"
0!#
0.#
1y"
11#
1$!
0"!
1"#
1%
0#
#460000
0!
0d
0L!
#465000
1!
1d
1L!
0)#
1~"
1!#
1.#
0y"
0##
01#
0$!
1"!
0"#
0%
1#
1##
#470000
0!
0d
0L!
#475000
1!
1d
1L!
1)#
0~"
0!#
0.#
1y"
11#
1$!
0"!
1"#
1%
0#
#480000
0!
0X
0W
1Q
0R
0S
0T
0U
0d
0n
0m
0k
0j
0i
0h
1g
1D#
0E#
0F#
0G#
0H#
0J#
0K#
0L!
1c"
0:"
0;"
1H"
1I"
1a"
1<"
1="
1`"
0["
1Z"
0W"
1X"
0q"
1D"
1r"
0R"
07"
0n"
0F"
1o"
09"
1U"
1V"
1Y"
1\"
0d"
1p"
1s"
0t"
16!
1v"
15!
0;!
18!
17!
14!
0G"
0p"
08"
1T"
0s"
0Y"
0\"
0]"
1b"
0`"
0J"
0K"
0a"
1d"
0>
1;
1:
19
18
17
0^"
1L"
1M"
0b"
1:!
0_"
1t"
1z"
0V"
07!
08!
1;!
05!
06!
1>
1=
0;
0:
09
08
04!
1(#
0v"
0i"
0j"
09!
0:!
0Z"
0N"
0O"
0=
0<
07
0X"
1P"
1k"
1l"
0m"
0r"
0o"
0U"
0x"
#485000
1!
1d
1L!
#490000
0!
0d
0L!
#495000
1!
1d
1L!
#500000
0!
0d
0L!
#505000
1!
1d
1L!
#510000
0!
0d
0L!
#515000
1!
1d
1L!
#520000
0!
0d
0L!
#525000
1!
1d
1L!
#530000
0!
0d
0L!
#535000
1!
1d
1L!
